Change Component Designator: Old Designator=IR*4 New Designator=IR*6
Change Component Designator: Old Designator=IR*5 New Designator=IR*4
Change Component Designator: Old Designator=IR*6 New Designator=IR*5
Change Component Designator: Old Designator=PIO2 New Designator=PIO10
Change Component Designator: Old Designator=PIO3 New Designator=PIO9
Change Component Designator: Old Designator=PIO4 New Designator=PIO2
Change Component Designator: Old Designator=PIO5 New Designator=PIO3
Change Component Designator: Old Designator=PIO6 New Designator=PIO4
Change Component Designator: Old Designator=PIO7 New Designator=PIO5
Change Component Designator: Old Designator=PIO8 New Designator=PIO6
Change Component Designator: Old Designator=PIO9 New Designator=PIO7
Change Component Designator: Old Designator=PIO10 New Designator=PIO8
Change Component Designator: Old Designator=R13 New Designator=R24
Change Component Designator: Old Designator=R14 New Designator=R13
Change Component Designator: Old Designator=R15 New Designator=R14
Change Component Designator: Old Designator=R16 New Designator=R15
Change Component Designator: Old Designator=R17 New Designator=R16
Change Component Designator: Old Designator=R18 New Designator=R17
Change Component Designator: Old Designator=R19 New Designator=R18
Change Component Designator: Old Designator=R20 New Designator=R19
Change Component Designator: Old Designator=R21 New Designator=R20
Change Component Designator: Old Designator=R22 New Designator=R21
Change Component Designator: Old Designator=R23 New Designator=R22
Change Component Designator: Old Designator=R24 New Designator=R23
Change Component Designator: Old Designator=TP23 New Designator=TP21
Change Component Designator: Old Designator=TP24 New Designator=TP22
Change Component Designator: Old Designator=TP25 New Designator=TP20
Change Component Designator: Old Designator=TP26 New Designator=TP29
Change Component Designator: Old Designator=TP27 New Designator=TP23
Change Component Designator: Old Designator=TP28 New Designator=TP24
Change Component Designator: Old Designator=TP29 New Designator=TP25
Change Component Designator: Old Designator=TP30 New Designator=TP26
Change Component Designator: Old Designator=TP31 New Designator=TP27
Change Component Designator: Old Designator=TP32 New Designator=TP28
Change Component Designator: Old Designator=TP33 New Designator=TP30
Change Component Designator: Old Designator=TP34 New Designator=TP31
Change Component Designator: Old Designator=TP35 New Designator=TP32
Change Component Designator: Old Designator=TP36 New Designator=TP33
Change Component Designator: Old Designator=TP37 New Designator=TP34
Change Component Designator: Old Designator=TP38 New Designator=TP35
Change Component Designator: Old Designator=TP39 New Designator=TP36
Change Component Designator: Old Designator=TP40 New Designator=TP37
Change Component Designator: Old Designator=TP41 New Designator=TP38
Change Component Designator: Old Designator=TP42 New Designator=TP39
Change Component Designator: Old Designator=TP43 New Designator=TP40
