Removed Pin From Net: NetName=3V3 Pin=P4-1
Removed Pin From Net: NetName=WG_SWDIO Pin=P4-2
Removed Pin From Net: NetName=GND Pin=P4-3
Removed Pin From Net: NetName=WG_SWCLK Pin=P4-4
Removed Pin From Net: NetName=GND Pin=P4-5
Removed Pin From Net: NetName=WG_SWO Pin=P4-6
Removed Pin From Net: NetName=GND Pin=P4-9
Removed Pin From Net: NetName=WG_RESET Pin=P4-10
Change Component Designator: OldDesignator=J? NewDesignator=J2
Added Component: Designator=J3(FTSH_105_01_L_DV_K_TR)
Added Pin To Net: NetName=3V3 Pin=J3-1
Added Pin To Net: NetName=WG_SWDIO Pin=J3-2
Added Pin To Net: NetName=GND Pin=J3-3
Added Pin To Net: NetName=WG_SWCLK Pin=J3-4
Added Pin To Net: NetName=GND Pin=J3-5
Added Pin To Net: NetName=WG_SWO Pin=J3-6
Added Pin To Net: NetName=GND Pin=J3-9
Added Pin To Net: NetName=WG_RESET Pin=J3-10
