Removed Pin From Net: NetName=MACHXO_TX_FTDI Pin=U2-99
Removed Pin From Net: NetName=MACHXO_RX_FTDI Pin=U2-100
Added Pin To Net: NetName=MACHXO_TX_FTDI Pin=U2-21
Added Pin To Net: NetName=MACHXO_RX_FTDI Pin=U2-22
